<svg width="24px" height="24px" viewBox="0 0 24 24" fill="none" xmlns="http://www.w3.org/2000/svg">
<path d="M3 6.25C3 4.45507 4.45507 3 6.25 3H17.75C19.5449 3 21 4.45507 21 6.25V17.75C21 19.5449 19.5449 21 17.75 21H6.25C4.45507 21 3 19.5449 3 17.75V6.25ZM12 9.5C11.5858 9.5 11.25 9.83579 11.25 10.25V16.25C11.25 16.3881 11.1381 16.5 11 16.5H9.75C9.33579 16.5 9 16.8358 9 17.25C9 17.6642 9.33579 18 9.75 18H11C11.9665 18 12.75 17.2165 12.75 16.25V10.25C12.75 9.83579 12.4142 9.5 12 9.5ZM14 11.25V12.75C14 13.7165 14.7835 14.5 15.75 14.5H16.25C16.3881 14.5 16.5 14.6119 16.5 14.75V16.25C16.5 16.3881 16.3881 16.5 16.25 16.5H14.75C14.3358 16.5 14 16.8358 14 17.25C14 17.6642 14.3358 18 14.75 18H16.25C17.2165 18 18 17.2165 18 16.25V14.75C18 13.7835 17.2165 13 16.25 13H15.75C15.6119 13 15.5 12.8881 15.5 12.75V11.25C15.5 11.1119 15.6119 11 15.75 11H17.25C17.6642 11 18 10.6642 18 10.25C18 9.83579 17.6642 9.5 17.25 9.5H15.75C14.7835 9.5 14 10.2835 14 11.25Z" fill="#F4D35E"/>
</svg>
